{
    "name": "Filosofía",
    "image": "",
    "temas": [
      {
        "tema": "Introducción",
        "subtemas": [
              {
                "tema": "Legal",
                "url": "legal.html"
              },
              {
                "tema": "Presentación",
                "url": "presentacion.html"
              },
              {
                "tema": "UAC I",
                "url": "index.html"
              },
              {
                "tema": "Multidisciplinariedad",
                "url": "multidisciplinariedad.html"
              },
              {
                "tema": "Evaluación diagnóstica",
                "url": "evaluacion_diagnostica.html"
              },
              {
                "tema": "Situación de aprendizaje",
                "url": "situacion_de_aprendizaje.html"
              },
              {
                "tema": "Situación en contexto",
                "url": "situacion_en_contexto.html"
              }
        ]
      },
      {
        "tema": "Relación de los seres humanos con el mundo",
        "subtemas": [
          {
            "tema": "Sentidos y lenguaje",
            "url": "tema1.0.0.html"
          },
          {
            "tema": "Actividad 1",
            "url": "tema1.0.0A1.html"
          },
          {
            "tema": "Cosmovisiones, ciencia y filosofía",
            "url": "tema1.1.0.html"
          },
          {
            "tema": "Actividad 2",
            "url": "tema1.1.0A2.html"
          },
          {
            "tema": "Realidad y apariencia",
            "url": "tema1.2.0.html"
          },
          {
            "tema": "Actividad 3",
            "url": "tema1.2.0A3.html"
          },
          {
            "tema": "Situaciones hipotéticas, acontecimientos contrafácticos",
            "url": "tema1.3.0.html"
          },
          {
            "tema": "Actividad 4",
            "url": "tema1.3.0A4.html"
          },
          {
            "tema": "Actividad 5",
            "url": "tema1.3.0A5.html"
          },
          {
            "tema": "Actividad DHS",
            "url": "tema1.3.0A5_dhs.html"
          }  
        ]
      },
      {
        "tema": "Ideas, creencias y conocimientos",
        "subtemas": [
            {
                "tema": "Ideas, creencias y conocimientos",
                "url": "tema2.0.0.html"
            },
            {
                "tema": "Ideas y creencias",
                "url": "tema2.1.0.html"
            },
            {
                "tema": "Actividad 6",
                "url": "tema2.1.0A6.html"
            },
            {
                "tema": "Conocimiento",
                "url": "tema2.2.0.html"
            },
            {
                "tema": "Creencia, justificación, verdad, crítica y racionalidad",
                "url": "tema2.3.0.html"
            },
            {
                "tema": "Actividad 7",
                "url": "tema2.3.0A7.html"
            },
            {
                "tema": "Actividad 8",
                "url": "tema2.3.0A8.html"
            },
            {
                "tema": "Observación, experimentación, demostración y crítica intersubjetiva",
                "url": "tema2.4.0.html"
            },
            {
                "tema": "Actividad 9",
                "url": "tema2.4.0A9.html"
            },
            {
                "tema": "Actividad 10",
                "url": "tema2.4.0A10.html"
            },
            {
                "tema": "¿Podemos hablar de conocimiento no científico?",
                "url": "tema2.5.0.html"
            },
            {
                "tema": "Habilidades prácticas y saberes tradicionales",
                "url": "tema2.6.0.html"
            },
            {
                "tema": "Actividad 11",
                "url": "tema2.6.0A11.html"
            },
            {
                "tema": "Actividad 12",
                "url": "tema2.6.0A12.html"
            },
            {
                "tema": "Actividad multidisciplinar",
                "url": "tema2.6.0A12_actividad_multidisciplinar.html"
            },
            {
                "tema": "Actividad DHS",
                "url": "tema2.6.0A12_dhs.html"
            },
            {
                "tema": "Fomento a la lectura",
                "url": "tema2.6.0A12_lectura.html"
            },
            {
                "tema": "Oriéntate",
                "url": "tema2.6.0A12_orientate.html"
            },
            {
                "tema": "Evaluación de situación de aprendizaje",
                "url": "tema2.6.0A12_situacion_de_aprendizaje.html"
            },
            {
                "tema": "Evaluación objetiva",
                "url": "tema2.6.1_evaluacion_objetiva.html"
            },
            {
                "tema": "Metacognición",
                "url": "tema2.6.1_metacognicion.html"
            },
            {
                "tema": "Evaluación de saberes",
                "url": "tema2.6.2_evaluacion_de_saberes.html"
            },
            {
                "tema": "Prueba tipo PLANEA",
                "url": "tema2.6.2_prueba_planea.html"
            }
        ]
      }
    ]
  }